---
http_interactions:
- request:
    method: get
    uri: https://api.flickr.com/services/rest/?api_key=<FLICKR_API_KEY>&format=json&method=flickr.photos.search&nojsoncallback=1&tags=denver,co
    body:
      encoding: US-ASCII
      string: ''
    headers:
      User-Agent:
      - Faraday v0.15.4
      Accept-Encoding:
      - gzip;q=1.0,deflate;q=0.6,identity;q=0.3
      Accept:
      - "*/*"
  response:
    status:
      code: 200
      message: OK
    headers:
      Date:
      - Sun, 24 Feb 2019 20:43:41 GMT
      Content-Type:
      - application/json
      Content-Length:
      - '3917'
      P3p:
      - policyref="https://policies.yahoo.com/w3c/p3p.xml", CP="CAO DSP COR CUR ADM
        DEV TAI PSA PSD IVAi IVDi CONi TELo OTPi OUR DELi SAMi OTRi UNRi PUBi IND
        PHY ONL UNI PUR FIN COM NAV INT DEM CNT STA POL HEA PRE LOC GOV"
      Cache-Control:
      - private
      X-Served-By:
      - www-bm133.flickr.gq1.yahoo.com
      X-Frame-Options:
      - SAMEORIGIN
      Vary:
      - Accept-Encoding
      Age:
      - '0'
      Via:
      - http/1.1 fts113.flickr.gq1.yahoo.com (ApacheTrafficServer [cMsSf ]), http/1.1
        e12.ycpi.dnb.yahoo.com (ApacheTrafficServer [cMsSf ])
      Server:
      - ATS
      Referrer-Policy:
      - no-referrer-when-downgrade
      Connection:
      - keep-alive
      Strict-Transport-Security:
      - max-age=15552000
      Expect-Ct:
      - max-age=31536000, report-uri="http://csp.yahoo.com/beacon/csp?src=yahoocom-expect-ct-report-only"
      X-Xss-Protection:
      - 1; mode=block
      X-Content-Type-Options:
      - nosniff
      Public-Key-Pins-Report-Only:
      - max-age=2592000; pin-sha256="2fRAUXyxl4A1/XHrKNBmc8bTkzA7y4FB/GLJuNAzCqY=";
        pin-sha256="I/Lt/z7ekCWanjD0Cvj5EqXls2lOaThEA0H2Bg4BT/o="; pin-sha256="Wd8xe/qfTwq3ylFNd3IpaqLHZbh2ZNCLluVzmeNkcpw=";
        pin-sha256="WoiWRyIOVNa9ihaBciRSC7XHjliYS9VwUGOIud4PB18="; pin-sha256="i7WTqTvh0OioIruIfFR4kMPnBqrS2rdiVPl/s2uC/CY=";
        pin-sha256="r/mIkG3eEpVdm+u/ko/cwxzOMo1bk4TyHIlByibiA5E="; pin-sha256="uUwZgwDOxcBXrQcntwu+kYFpkiVkOaezL0WYEZ3anJc=";
        pin-sha256="dolnbtzEBnELx/9lOEQ22e6OZO/QNb6VSSX2XHA3E7A="; includeSubdomains;
        report-uri="http://csp.yahoo.com/beacon/csp?src=yahoocom-hpkp-report-only"
    body:
      encoding: ASCII-8BIT
      string: '{"photos":{"page":1,"pages":9107,"perpage":100,"total":"910688","photo":[{"id":"46285614975","owner":"68751857@N05","secret":"1641cc9663","server":"7867","farm":8,"title":"66745","ispublic":1,"isfriend":0,"isfamily":0},{"id":"46285612725","owner":"68751857@N05","secret":"2d2ce3d6c0","server":"7815","farm":8,"title":"66745","ispublic":1,"isfriend":0,"isfamily":0},{"id":"40235078843","owner":"94523300@N07","secret":"c4237547df","server":"7900","farm":8,"title":"Rising
        Peak","ispublic":1,"isfriend":0,"isfamily":0},{"id":"33324323158","owner":"94523300@N07","secret":"157e92ecf5","server":"7818","farm":8,"title":"Balancing
        Rock","ispublic":1,"isfriend":0,"isfamily":0},{"id":"33324311418","owner":"94523300@N07","secret":"027fc4bd82","server":"7875","farm":8,"title":"Rocky
        Arbor Rises","ispublic":1,"isfriend":0,"isfamily":0},{"id":"33324308248","owner":"94523300@N07","secret":"736632324c","server":"7817","farm":8,"title":"Peaks
        Hard and Soft","ispublic":1,"isfriend":0,"isfamily":0},{"id":"47199733861","owner":"94523300@N07","secret":"75b0e31abb","server":"7806","farm":8,"title":"Full
        and Thin","ispublic":1,"isfriend":0,"isfamily":0},{"id":"32257397517","owner":"135772608@N05","secret":"55a2afd429","server":"7895","farm":8,"title":"Milky
        Way Dunes","ispublic":1,"isfriend":0,"isfamily":0},{"id":"46284674395","owner":"53477149@N02","secret":"25f3f4230f","server":"7907","farm":8,"title":"Denver
        Steppe Garden","ispublic":1,"isfriend":0,"isfamily":0},{"id":"32256374357","owner":"148978073@N04","secret":"0f3c8d7022","server":"7883","farm":8,"title":"Ca\u00f1on
        City CO 2012","ispublic":1,"isfriend":0,"isfamily":0},{"id":"33321291788","owner":"151483626@N05","secret":"de3cedf742","server":"7825","farm":8,"title":"Pin
        with Denver Concepts! Check out our awesome Pinterest page! \ud83d\udccc\ud83d\ude07
        https:\/\/www.pinterest.com\/denverconcepts\/","ispublic":1,"isfriend":0,"isfamily":0},{"id":"8172043009","owner":"89631716@N07","secret":"3879f872e1","server":"8197","farm":9,"title":"Ireland,
        St Patricks Day Headdress '' Dublin Ireland.","ispublic":1,"isfriend":0,"isfamily":0},{"id":"8169419924","owner":"89631716@N07","secret":"fe127f9df3","server":"7121","farm":8,"title":"Irish
        Cottages.- Doagh Island in County Donegal, Ireland.","ispublic":1,"isfriend":0,"isfamily":0},{"id":"8166977287","owner":"89631716@N07","secret":"a63d2cfeba","server":"7134","farm":8,"title":"Portrush.-
        in County Antrim, Northern Ireland.","ispublic":1,"isfriend":0,"isfamily":0},{"id":"32253438607","owner":"65957926@N02","secret":"4399e6c67d","server":"7896","farm":8,"title":"Bocagrande
        at the golden hour","ispublic":1,"isfriend":0,"isfamily":0},{"id":"47194566231","owner":"35781067@N08","secret":"dca169080d","server":"7874","farm":8,"title":"Co-Domain:  Many
        benefits for user","ispublic":1,"isfriend":0,"isfamily":0},{"id":"33318243958","owner":"168185787@N08","secret":"27d1837a56","server":"7826","farm":8,"title":"Union
        Station","ispublic":1,"isfriend":0,"isfamily":0},{"id":"40228885893","owner":"149908174@N06","secret":"fdc7d47095","server":"7824","farm":8,"title":"U-Turn
        https:\/\/t.co\/rpro8hfTFN","ispublic":1,"isfriend":0,"isfamily":0},{"id":"40228658883","owner":"53663839@N03","secret":"beff1b9f17","server":"7865","farm":8,"title":"_MG_7910","ispublic":1,"isfriend":0,"isfamily":0},{"id":"33317970288","owner":"53663839@N03","secret":"f5bd0de6fc","server":"7908","farm":8,"title":"_MG_7913","ispublic":1,"isfriend":0,"isfamily":0},{"id":"47193037021","owner":"35390579@N04","secret":"7d86371da6","server":"7844","farm":8,"title":"Day54_2019","ispublic":1,"isfriend":0,"isfamily":0},{"id":"46278087175","owner":"123449205@N06","secret":"f18d4063fd","server":"7842","farm":8,"title":"US
        Wind Engine & Pump Co. Gem windmill; Toowoomba Showgrounds, Queensland, Australia","ispublic":1,"isfriend":0,"isfamily":0},{"id":"46468722394","owner":"123449205@N06","secret":"7a875099f8","server":"7834","farm":8,"title":"US
        Wind Engine & Pump Co. Gem windmill; Toowoomba Showground, Queensland Australia","ispublic":1,"isfriend":0,"isfamily":0},{"id":"46468721894","owner":"123449205@N06","secret":"37501f64f9","server":"7921","farm":8,"title":"US
        Wind Engine & Pump Co. Gem windmill; Toowoomba Showground, Queensland Australia","ispublic":1,"isfriend":0,"isfamily":0},{"id":"47192321041","owner":"123449205@N06","secret":"99f89983ae","server":"7912","farm":8,"title":"US
        Wind Engine & Pump Co. Gem windmill; Toowoomba Showground, Queensland Australia","ispublic":1,"isfriend":0,"isfamily":0},{"id":"46468721174","owner":"123449205@N06","secret":"ee2c861069","server":"7843","farm":8,"title":"US
        Wind Engine & Pump Co. Gem windmill; Toowoomba Showground, Queensland Australia","ispublic":1,"isfriend":0,"isfamily":0},{"id":"46468720764","owner":"123449205@N06","secret":"c5f18ac6f7","server":"7885","farm":8,"title":"US
        Wind Engine & Pump Co. Gem windmill; Toowoomba Showground, Queensland Australia","ispublic":1,"isfriend":0,"isfamily":0},{"id":"47192319561","owner":"123449205@N06","secret":"22cb8127e3","server":"7852","farm":8,"title":"US
        Wind Engine & Pump Co. Gem windmill; Toowoomba Showground, Queensland Australia","ispublic":1,"isfriend":0,"isfamily":0},{"id":"47192318981","owner":"123449205@N06","secret":"7fd0b956fe","server":"7900","farm":8,"title":"US
        Wind Engine & Pump Co. Gem windmill; Toowoomba Showground, Queensland Australia","ispublic":1,"isfriend":0,"isfamily":0},{"id":"46277023795","owner":"160289201@N04","secret":"ae38b3bcab","server":"7892","farm":8,"title":"MILW
        E9 32A","ispublic":1,"isfriend":0,"isfamily":0},{"id":"40226295113","owner":"98230890@N04","secret":"3141d70877","server":"7838","farm":8,"title":"","ispublic":1,"isfriend":0,"isfamily":0},{"id":"46467417114","owner":"39836272@N07","secret":"1637a61b95","server":"7892","farm":8,"title":"Midwesterners
        on the Moffat","ispublic":1,"isfriend":0,"isfamily":0},{"id":"32248817577","owner":"18378305@N00","secret":"3187629ea4","server":"7842","farm":8,"title":"Commonwealth
        Trust Company","ispublic":1,"isfriend":0,"isfamily":0},{"id":"47138724822","owner":"155899041@N04","secret":"f9166732c7","server":"7822","farm":8,"title":"Train
        Simulator","ispublic":1,"isfriend":0,"isfamily":0},{"id":"47138724742","owner":"155899041@N04","secret":"2d41da9025","server":"7841","farm":8,"title":"Train
        Simulator","ispublic":1,"isfriend":0,"isfamily":0},{"id":"47138724672","owner":"155899041@N04","secret":"038b81b991","server":"7914","farm":8,"title":"Train
        Simulator","ispublic":1,"isfriend":0,"isfamily":0},{"id":"32248629227","owner":"144159827@N06","secret":"aa84f585ac","server":"7875","farm":8,"title":"Local,
        live music tonight at 8PM with Bad Decision. Only acceptable excuse for not
        coming is you\u2019re calving heifers. #bolobeerco #localbeer #valentinenebraska
        #getwestern","ispublic":1,"isfriend":0,"isfamily":0},{"id":"46276130095","owner":"147104027@N04","secret":"59e5ea2176","server":"7849","farm":8,"title":"CO:
        An emotional Support cat on a rental property that only allows dogs","ispublic":1,"isfriend":0,"isfamily":0},{"id":"46275658075","owner":"77233707@N00","secret":"38738e78b7","server":"7893","farm":8,"title":"P2230136","ispublic":1,"isfriend":0,"isfamily":0},{"id":"32247998257","owner":"77233707@N00","secret":"023757a198","server":"7819","farm":8,"title":"P2230148","ispublic":1,"isfriend":0,"isfamily":0},{"id":"46275657475","owner":"77233707@N00","secret":"362a0cabf3","server":"7898","farm":8,"title":"P2230153","ispublic":1,"isfriend":0,"isfamily":0},{"id":"32247997117","owner":"77233707@N00","secret":"cf7b4b79c5","server":"7854","farm":8,"title":"P2230172","ispublic":1,"isfriend":0,"isfamily":0},{"id":"33314556628","owner":"77233707@N00","secret":"187e0518ee","server":"7921","farm":8,"title":"P2230190","ispublic":1,"isfriend":0,"isfamily":0},{"id":"32247291127","owner":"29175686@N02","secret":"bee0f032f6","server":"7903","farm":8,"title":"","ispublic":1,"isfriend":0,"isfamily":0},{"id":"47137085282","owner":"38813976@N04","secret":"76a5ac47d0","server":"7882","farm":8,"title":"New
        Sheridan Snow","ispublic":1,"isfriend":0,"isfamily":0},{"id":"46465233374","owner":"15129755@N08","secret":"4e499bdba1","server":"7866","farm":8,"title":"A
        cozy house","ispublic":1,"isfriend":0,"isfamily":0},{"id":"46274107165","owner":"143787765@N02","secret":"4cb5a6978c","server":"7890","farm":8,"title":"Looking
        down at Faversham Lake with the Denver skyline in the distance under a cloudy
        sky as fall colors begin to touch the trees of Faversham Park. Taken on 9-28-18,
        at Hillside Park in Arvada, Colorado.  . . . . .  #CanonRebelT5 #Canon #Rebel
        #T5 F\/5.6","ispublic":1,"isfriend":0,"isfamily":0},{"id":"33312521458","owner":"41315423@N00","secret":"4728be4178","server":"7809","farm":8,"title":"Summit
        of Trail Ridge Road (redux)","ispublic":1,"isfriend":0,"isfamily":0},{"id":"46462439834","owner":"65957926@N02","secret":"a158609979","server":"7804","farm":8,"title":"Castillogrande
        and Bocagrande at the blue hour","ispublic":1,"isfriend":0,"isfamily":0},{"id":"32243972827","owner":"51035555243@N01","secret":"ed25d39fb9","server":"7910","farm":8,"title":"Ain''t
        So Lonely","ispublic":1,"isfriend":0,"isfamily":0},{"id":"46271105535","owner":"148839705@N03","secret":"eb85449e81","server":"7812","farm":8,"title":"Vail
        Wedding Planner","ispublic":1,"isfriend":0,"isfamily":0},{"id":"46459680514","owner":"149908174@N06","secret":"f076e45288","server":"7876","farm":8,"title":"Barista
        https:\/\/t.co\/xZXpVrTz6v","ispublic":1,"isfriend":0,"isfamily":0},{"id":"47131393102","owner":"126941550@N05","secret":"2d3bbb1de4","server":"7839","farm":8,"title":"Bellaghy","ispublic":1,"isfriend":0,"isfamily":0},{"id":"40218476883","owner":"126941550@N05","secret":"14bc019a05","server":"7893","farm":8,"title":"Co.
        Antrim Coast","ispublic":1,"isfriend":0,"isfamily":0},{"id":"47131392602","owner":"126941550@N05","secret":"42ba01670a","server":"7861","farm":8,"title":"Co.
        Antrim Coast","ispublic":1,"isfriend":0,"isfamily":0},{"id":"40218475963","owner":"126941550@N05","secret":"d8351a544a","server":"7806","farm":8,"title":"Co.
        Antrim Coast","ispublic":1,"isfriend":0,"isfamily":0},{"id":"47131392072","owner":"126941550@N05","secret":"606428aaf6","server":"7906","farm":8,"title":"Co.
        Antrim Coast","ispublic":1,"isfriend":0,"isfamily":0},{"id":"40218474723","owner":"126941550@N05","secret":"811163815d","server":"7877","farm":8,"title":"Co.
        Antrim Coast","ispublic":1,"isfriend":0,"isfamily":0},{"id":"40218150373","owner":"155791033@N05","secret":"93be1922aa","server":"7877","farm":8,"title":"Key
        Maker in Denver, CO","ispublic":1,"isfriend":0,"isfamily":0},{"id":"47181452481","owner":"103688802@N02","secret":"27572439df","server":"7918","farm":8,"title":"UAmenuDEN1950s","ispublic":1,"isfriend":0,"isfamily":0},{"id":"47129512502","owner":"95607642@N04","secret":"7f58c807d8","server":"7893","farm":8,"title":"Cake-Detail","ispublic":1,"isfriend":0,"isfamily":0},{"id":"47128990662","owner":"50751138@N02","secret":"61780f7a41","server":"7924","farm":8,"title":"MessaVerde_4515","ispublic":1,"isfriend":0,"isfamily":0},{"id":"47128988562","owner":"143033662@N04","secret":"2f38b2d7d5","server":"7833","farm":8,"title":"Foggy
        Zephyr","ispublic":1,"isfriend":0,"isfamily":0},{"id":"32238800517","owner":"163965085@N03","secret":"da758667f5","server":"7873","farm":8,"title":"Colorado","ispublic":1,"isfriend":0,"isfamily":0},{"id":"46456991054","owner":"7899659@N04","secret":"bfb659083a","server":"7845","farm":8,"title":"Lithops
        hookeri var. dabneri C085 (collage)","ispublic":1,"isfriend":0,"isfamily":0},{"id":"47128531352","owner":"147104027@N04","secret":"0e58e6c7d1","server":"7801","farm":8,"title":"How
        exactly did Omar not get severely injured from the jump and is able to move
        out of sight so fast before Chris and co can spot him from the top??","ispublic":1,"isfriend":0,"isfamily":0},{"id":"47180253851","owner":"66100623@N06","secret":"9e04a4765e","server":"7832","farm":8,"title":"Over
        Under","ispublic":1,"isfriend":0,"isfamily":0},{"id":"47128432192","owner":"66100623@N06","secret":"4dbda3e029","server":"7890","farm":8,"title":"You
        Don''t Know What You''ve Got (Until it''s Properly Diagnosed)","ispublic":1,"isfriend":0,"isfamily":0},{"id":"33304977558","owner":"66100623@N06","secret":"7f459f107e","server":"7884","farm":8,"title":"Pursuit","ispublic":1,"isfriend":0,"isfamily":0},{"id":"46265961375","owner":"32729112@N02","secret":"b78d9beba2","server":"7811","farm":8,"title":"Berlin
        C\/O im Amerka Haus 1957","ispublic":1,"isfriend":0,"isfamily":0},{"id":"32255425917","owner":"20927506@N07","secret":"ffba05c18e","server":"7844","farm":8,"title":"Denver","ispublic":1,"isfriend":0,"isfamily":0},{"id":"33321979878","owner":"20927506@N07","secret":"b872583811","server":"7867","farm":8,"title":"A
        View","ispublic":1,"isfriend":0,"isfamily":0},{"id":"33321973608","owner":"20927506@N07","secret":"43c4994c00","server":"7825","farm":8,"title":"El
        Five restaurant","ispublic":1,"isfriend":0,"isfamily":0},{"id":"47139603342","owner":"95607642@N04","secret":"0cfea1349a","server":"7804","farm":8,"title":"Rings-Detail","ispublic":1,"isfriend":0,"isfamily":0},{"id":"46276810245","owner":"98230890@N04","secret":"990a681e87","server":"7864","farm":8,"title":"","ispublic":1,"isfriend":0,"isfamily":0},{"id":"46275682285","owner":"77233707@N00","secret":"41f070cb91","server":"7832","farm":8,"title":"P2230005","ispublic":1,"isfriend":0,"isfamily":0},{"id":"47189892081","owner":"77233707@N00","secret":"5c22c74afd","server":"7909","farm":8,"title":"P2230006","ispublic":1,"isfriend":0,"isfamily":0},{"id":"46466325414","owner":"77233707@N00","secret":"254e9e0e1d","server":"7853","farm":8,"title":"P2230011","ispublic":1,"isfriend":0,"isfamily":0},{"id":"47189890611","owner":"77233707@N00","secret":"9ebf6125e3","server":"7898","farm":8,"title":"P2230020","ispublic":1,"isfriend":0,"isfamily":0},{"id":"46466324864","owner":"77233707@N00","secret":"874aa2e23e","server":"7852","farm":8,"title":"P2230024","ispublic":1,"isfriend":0,"isfamily":0},{"id":"46466324074","owner":"77233707@N00","secret":"ff8a492432","server":"7846","farm":8,"title":"P2230026","ispublic":1,"isfriend":0,"isfamily":0},{"id":"33314571388","owner":"77233707@N00","secret":"47ba3ede2d","server":"7889","farm":8,"title":"P2230028","ispublic":1,"isfriend":0,"isfamily":0},{"id":"46466322384","owner":"77233707@N00","secret":"471cc7617f","server":"7849","farm":8,"title":"P2230034","ispublic":1,"isfriend":0,"isfamily":0},{"id":"33314568678","owner":"77233707@N00","secret":"647b1a1288","server":"7888","farm":8,"title":"P2230035","ispublic":1,"isfriend":0,"isfamily":0},{"id":"46466319654","owner":"77233707@N00","secret":"04e2c10d91","server":"7855","farm":8,"title":"P2230037","ispublic":1,"isfriend":0,"isfamily":0},{"id":"47189887561","owner":"77233707@N00","secret":"25391b3c34","server":"7911","farm":8,"title":"P2230046","ispublic":1,"isfriend":0,"isfamily":0},{"id":"46466318464","owner":"77233707@N00","secret":"fa86d6c332","server":"7863","farm":8,"title":"P2230047","ispublic":1,"isfriend":0,"isfamily":0},{"id":"47189887171","owner":"77233707@N00","secret":"e5a3eda5b8","server":"7804","farm":8,"title":"P2230052","ispublic":1,"isfriend":0,"isfamily":0},{"id":"46466316464","owner":"77233707@N00","secret":"cef90efca7","server":"7809","farm":8,"title":"P2230067","ispublic":1,"isfriend":0,"isfamily":0},{"id":"46466314774","owner":"77233707@N00","secret":"fb8e57c175","server":"7901","farm":8,"title":"P2230078","ispublic":1,"isfriend":0,"isfamily":0},{"id":"47189884301","owner":"77233707@N00","secret":"fe294f51d7","server":"7911","farm":8,"title":"P2230085","ispublic":1,"isfriend":0,"isfamily":0},{"id":"46275664025","owner":"77233707@N00","secret":"7943f79388","server":"7819","farm":8,"title":"P2230088","ispublic":1,"isfriend":0,"isfamily":0},{"id":"40225121843","owner":"77233707@N00","secret":"ae6cc902d2","server":"7864","farm":8,"title":"P2230103","ispublic":1,"isfriend":0,"isfamily":0},{"id":"46275662915","owner":"77233707@N00","secret":"ab8a582fb4","server":"7889","farm":8,"title":"P2230104","ispublic":1,"isfriend":0,"isfamily":0},{"id":"40225121383","owner":"77233707@N00","secret":"26fc4a5b31","server":"7917","farm":8,"title":"P2230107","ispublic":1,"isfriend":0,"isfamily":0},{"id":"46275661535","owner":"77233707@N00","secret":"8d03339fe1","server":"7894","farm":8,"title":"P2230115","ispublic":1,"isfriend":0,"isfamily":0},{"id":"40225120763","owner":"77233707@N00","secret":"c3f6b4121e","server":"7834","farm":8,"title":"P2230119","ispublic":1,"isfriend":0,"isfamily":0},{"id":"46275659325","owner":"77233707@N00","secret":"fe99d0fe65","server":"7826","farm":8,"title":"P2230121","ispublic":1,"isfriend":0,"isfamily":0},{"id":"40225119993","owner":"77233707@N00","secret":"5c2b324ddc","server":"7862","farm":8,"title":"P2230127","ispublic":1,"isfriend":0,"isfamily":0},{"id":"46275656295","owner":"77233707@N00","secret":"84a7ff57d2","server":"7804","farm":8,"title":"P2230064","ispublic":1,"isfriend":0,"isfamily":0}]},"stat":"ok"}'
    http_version: 
  recorded_at: Sun, 24 Feb 2019 20:43:42 GMT
recorded_with: VCR 4.0.0
